digraph "PPM_to_PBM"
{
  edge [fontname="Helvetica",fontsize="10",labelfontname="Helvetica",labelfontsize="10"];
  node [fontname="Helvetica",fontsize="10",shape=record];
  rankdir="LR";
  Node3 [label="PPM_to_PBM",height=0.2,width=0.4,color="black", fillcolor="grey75", style="filled", fontcolor="black"];
  Node3 -> Node4 [color="midnightblue",fontsize="10",style="solid",fontname="Helvetica"];
  Node4 [label="get_rouge",height=0.2,width=0.4,color="black", fillcolor="white", style="filled",URL="$transformation_8c.html#a1b264fe3f214aa4b687c812c67c6219c",tooltip="Récupère la valeur rouge d&#39;un pixel, encodée dans un entier 64 bits. "];
  Node3 -> Node5 [color="midnightblue",fontsize="10",style="solid",fontname="Helvetica"];
  Node5 [label="get_vert",height=0.2,width=0.4,color="black", fillcolor="white", style="filled",URL="$transformation_8c.html#a7412ab5e56f5f202145a972a985c54b2",tooltip="Récupère la valeur verte, encodée dans un entier 64 bits. "];
  Node3 -> Node6 [color="midnightblue",fontsize="10",style="solid",fontname="Helvetica"];
  Node6 [label="get_bleu",height=0.2,width=0.4,color="black", fillcolor="white", style="filled",URL="$transformation_8c.html#aadf488334ae48158450990aa6906d5dc",tooltip="Récupère la valeur bleue, encodée dans un entier 64 bits. "];
}
